…
You can recode multiple columns at once using wide or long data frames.

``` r
acs_codes
#> # A tibble: 8 x 12
#>    code SEX    code   RACE   code   HISPAN  code  EDUC   code  BPL   code  AGE  
#>   <dbl> <chr>  <chr>  <chr>  <chr>  <chr>   <chr> <chr>  <chr> <chr> <chr> <chr>
#> 1     1 Male   1      White  0      Not Hi~ ~ . ~ Non-h~ ~ . ~ Unit~ ~ . ~ 17 o~
#> 2     2 Female 2      Black  ~ . %~ Hispan~ 6     High ~ ~ . ~ Anot~ ~ . ~ 18-23
#> 3    NA <NA>   3      AIAN   9      <NA>    ~ . ~ Some ~ <NA>  <NA>  ~ . ~ 24-29
#> 4    NA <NA>   ~ . %~ AAPI   <NA>   <NA>    ~ . ~ Colle~ <NA>  <NA>  ~ . ~ 30-39
#> 5    NA <NA>   7      Other~ <NA>   <NA>    <NA>  <NA>   <NA>  <NA>  ~ . ~ 40-49
#> # ... with 3 more rows
leaf_recode(acs_nh, acs_codes)
#> # A tibble: 13,780 x 7
#>   PERWT SEX    AGE          RACE  HISPAN      BPL           EDUC                
#>   <dbl> <chr>  <chr>        <chr> <chr>       <chr>         <chr>               
#> 1   124 Female 50-59        White Not Hispan~ United States Some college        
#> 2    18 Female 30-39        White Not Hispan~ United States College graduate    
#> 3   104 Female 17 or young~ White Not Hispan~ United States Non-high school gra~
#> 4   213 Female 30-39        White Not Hispan~ United States College graduate    
#> 5   182 Male   50-59        White Not Hispan~ Another coun~ College graduate    
#> # ... with 1.378e+04 more rows

acs_codes_long
#> # A tibble: 25 x 3
#>   variable code  value 
#>   <chr>    <chr> <chr> 
#> 1 SEX      1     Male  
#> 2 SEX      2     Female
#> 3 RACE     1     White 
#> 4 RACE     2     Black 
#> 5 RACE     3     AIAN  
#> # ... with 20 more rows
…
### Generating a target data frame

Once our data is recoded, `leaf_peep()` prepares it to be used as
weighting targets in `autumn::harvest()`

``` r
acs_nh_interacted <- leaf_interactions(
  acs_nh_recoded, c("race", "educ"), c("sex", "age")
)

leaf_peep(acs_nh_interacted, weight_col = perwt)
#> # A tibble: 64 x 3
#>   variable level         proportion
#>   <chr>    <chr>              <dbl>
#> 1 sex      Female            0.502 
#> 2 sex      Male              0.498 
#> 3 age      17 or younger     0.183 
#> 4 age      18-23             0.0825
#> 5 age      24-29             0.0729
#> # ... with 59 more rows
```

### Collapsing categories

`leaf_other()` recategorizes levels into an other category if their
proportion is below a certain cutoff.

``` r
acs_nh_targets <- leaf_peep(acs_nh_interacted, weight_col = perwt)

dplyr::arrange(acs_nh_targets, proportion)
#> # A tibble: 64 x 3
#>    variable    level                                 proportion
#>    <chr>       <chr>                                      <dbl>
#>  1 race_x_educ AIAN x Non-high school graduate         0.000280
#>  2 race_x_educ AIAN x High school graduate             0.000469
#>  3 race_x_educ AIAN x Some college                     0.000626
#>  4 race_x_educ Other race x Some college               0.000830
#>  5 race_x_educ AIAN x College graduate                 0.000881
#>  6 race_x_educ Other race x College graduate           0.00110 
#>  7 race_x_educ Other race x High school graduate       0.00158 
#>  8 race        AIAN                                    0.00226 
#>  9 race_x_educ Other race x Non-high school graduate   0.00256 
#> 10 race_x_educ Black x College graduate                0.00261 
#> # ... with 54 more rows

leaf_other(acs_nh_targets, 0.01) %>% 
  dplyr::arrange(proportion)
#> # A tibble: 44 x 3
#>    variable    level                   proportion
#>    <chr>       <chr>                        <dbl>
#>  1 race_x_educ AAPI x College graduate     0.0127
#>  2 race        Mixed race                  0.0208
#>  3 race        Other                       0.0229
#>  4 race        AAPI                        0.0311
#>  5 sex_x_age   Female x 24-29              0.0358
#>  6 sex_x_age   Male x 24-29                0.0371
#>  7 hispan      Hispanic                    0.0386
#>  8 sex_x_age   Male x 18-23                0.0402
#>  9 sex_x_age   Female x 18-23              0.0423
#> 10 sex_x_age   Male x 70 or older          0.0524
#> # ... with 34 more rows
```

If the other category would itself be under the cutoff proportion, the
next smallest level is added to the other category. To avoid this, set
`inclusive = FALSE`.

``` r
leaf_other(acs_nh_targets, 0.01, inclusive = FALSE) %>% 
  dplyr::arrange(proportion)
#> # A tibble: 45 x 3
#>    variable    level                   proportion
#>    <chr>       <chr>                        <dbl>
#>  1 race        Other                      0.00833
#>  2 race_x_educ AAPI x College graduate    0.0127 
#>  3 race        Black                      0.0146 
#>  4 race        Mixed race                 0.0208 
#>  5 race        AAPI                       0.0311 
#>  6 sex_x_age   Female x 24-29             0.0358 
#>  7 sex_x_age   Male x 24-29               0.0371 
#>  8 hispan      Hispanic                   0.0386 
#>  9 sex_x_age   Male x 18-23               0.0402 
#> 10 sex_x_age   Female x 18-23             0.0423 
#> # ... with 35 more rows
```
…
